<?xml version="1.0" encoding="UTF-8"?>
<!--Generator: Apple Native CoreSVG 232.5-->
<!DOCTYPE svg
PUBLIC "-//W3C//DTD SVG 1.1//EN"
       "http://www.w3.org/Graphics/SVG/1.1/DTD/svg11.dtd">
<svg version="1.1" xmlns="http://www.w3.org/2000/svg" xmlns:xlink="http://www.w3.org/1999/xlink" width="25.2344" height="25.2344">
 <g>
  <rect height="25.2344" opacity="0" width="25.2344" x="0" y="0"/>
  <path d="M12.6094 25.2344C19.5 25.2344 25.2344 19.5156 25.2344 12.625C25.2344 5.73438 19.4844 0.015625 12.5938 0.015625C5.71875 0.015625 0 5.73438 0 12.625C0 19.5156 5.73438 25.2344 12.6094 25.2344Z" fill="#007aff"/>
  <path d="M8.75 18.6875C7.29688 18.6875 6.54688 17.9531 6.54688 16.5156L6.54688 9.1875C6.54688 7.75 7.29688 7 8.75 7L15.2188 7L13.75 8.46875L8.78125 8.46875C8.26562 8.46875 8.01562 8.70312 8.01562 9.26562L8.01562 16.4375C8.01562 16.9844 8.26562 17.2188 8.78125 17.2188L16.2344 17.2188C16.5156 17.2188 16.7656 16.9844 16.7656 16.4375L16.7656 11.5469L18.2188 10.0938L18.2188 16.5156C18.2188 17.9531 17.4688 18.6875 16.25 18.6875ZM11.0156 14.625C10.7656 14.7188 10.4844 14.4531 10.6094 14.1875L11.2188 12.9062L16.9688 7.125L18.1562 8.29688L12.3906 14.0625ZM18.7344 7.71875L17.5469 6.54688L18.1406 5.96875C18.4062 5.70312 18.8438 5.67188 19.125 5.95312L19.2812 6.125C19.5781 6.40625 19.5625 6.79688 19.2812 7.09375Z" fill="#000000" fill-opacity="0.85"/>
 </g>
</svg>
